Name,Sex,Event,Equipment,Division,BodyweightKg,WeightClassKg,Squat1Kg,Squat2Kg,Squat3Kg,Best3SquatKg,Bench1Kg,Bench2Kg,Bench3Kg,Best3BenchKg,Deadlift1Kg,Deadlift2Kg,Deadlift3Kg,Best3DeadliftKg,TotalKg,Place,State
Akin Yavuz,M,SBD,Single-ply,M-E-Open,65.8,66,175,185,190,190,105,110,112.5,112.5,195,205,210,210,512.5,1,SW
Benedict Foster,M,SBD,Raw,M-C-Open,70.95,74,85,95,102.5,102.5,75,82.5,85,85,115,125,132.5,132.5,320,10,SW
Brandon Kear,M,SBD,Raw,M-C-Open,72.3,74,160,172.5,-185,172.5,92.5,-97.5,-97.5,92.5,190,207.5,215,215,480,5,SW
Callum Mock,M,SBD,Raw,M-C-Open,63.92,66,117.5,125,130,130,67.5,75,-80,75,130,-145,-145,130,335,4,SW
Charles Tran,M,SBD,Raw,M-C-Open,73.14,74,140,150,160,160,85,90,-95,90,160,170,180,180,430,8,SW
Daniel Coote,M,SBD,Raw,M-C-Open,73.65,74,170,180,187.5,187.5,-110,-110,-110,,210,220,230,230,,DQ,SW
Dean Patient,M,SBD,Raw,M-C-Open,71.24,74,142.5,150,155,155,97.5,105,-110,105,165,180,-185,180,440,7,SW
Edward Bristow,M,SBD,Raw,M-C-Open,73.2,74,-140,-140,140,140,100,107.5,112.5,112.5,170,180,190,190,442.5,6,SW
James Coleman,M,SBD,Raw,M-C-Open,70.72,74,-165,165,172.5,172.5,95,102.5,105,105,-175,-175,-175,,,DQ,SW
Jordan Partington,M,SBD,Raw,M-C-Open,72.64,74,160,172.5,180,180,100,110,115,115,170,180,190,190,485,4,SW
Kai Gajewiak,M,SBD,Raw,M-C-Open,58.73,59,120,130,135,135,100,-105,110,110,140,145,150,150,395,1,SW
Liam Tran,M,SBD,Raw,M-C-Open,57.35,59,120,125,130,130,60,65,-70,65,130,140,150,150,345,2,SW
Louis Titcombe,M,SBD,Raw,M-C-Open,70.46,74,115,125,130,130,90,100,105,105,150,165,175,175,410,9,SW
Luke Wilson #2,M,SBD,Raw,M-C-Open,73.5,74,175,190,-202.5,190,105,-112.5,112.5,112.5,195,205,215,215,517.5,3,SW
Robert Christie,M,SBD,Raw,M-C-Open,66,66,120,130,-137.5,130,-80,80,-85,80,150,157.5,162.5,162.5,372.5,3,SW
Roy Standen,M,SBD,Raw,M-C-Open,72.02,74,90,95,100,100,57.5,60,62.5,62.5,120,125,130,130,292.5,11,SW
Scott Govier,M,SBD,Raw,M-C-Open,73.5,74,190,-200,-200,190,117.5,122.5,127.5,127.5,210,215,220,220,537.5,2,SW
Shaun Bateman,M,SBD,Raw,M-C-Open,64.31,66,150,160,-165,160,110,115,117.5,117.5,180,190,-200,190,467.5,1,SW
Thomas Goodspeed,M,SBD,Raw,M-C-Open,65.9,66,140,150,160,160,105,110,-117.5,110,175,190,-205,190,460,2,SW
Tim Rew,M,SBD,Raw,M-C-Open,71.83,74,170,180,195,195,110,-115,-115,110,220,230,235,235,540,1,SW
Adam Ferrett,M,SBD,Raw,M-C-Open,79.99,83,-177.5,182.5,185,185,110,117.5,-122.5,117.5,245,255,261,261,563.5,5,SW
Adrian O'Callaghan,M,SBD,Raw,M-C-Open,79.38,83,160,170,180,180,100,110,120,120,180,190,-200,190,490,10,SW
Alistair Cannings,M,SBD,Raw,M-C-Open,81.72,83,180,195,205,205,135,142.5,-147.5,142.5,,,,,,DQ,SW
Andy Moore,M,SBD,Raw,M-C-Open,78,83,175,185,-195,185,-85,95,-102.5,95,200,-210,-210,200,480,13,SW
Bartosz Suyczynski,M,SBD,Raw,M-C-Open,92.89,93,135,145,152.5,152.5,80,92.5,100,100,135,145,152.5,152.5,405,19,SW
Blake Rumfitt,M,SBD,Raw,M-C-Open,110.7,120,160,175,-195,175,120,130,140,140,215,-230,-230,215,530,3,SW
Chris Gutteridge,M,SBD,Raw,M-C-Open,89.14,93,170,182.5,-187.5,182.5,-105,105,-112.5,105,195,200,210,210,497.5,16,SW
Chris Lineham,M,SBD,Raw,M-C-Open,81.41,83,190,200,210,210,130,140,145,145,245,255,-260,255,610,2,SW
Christopher Wheeler #2,M,SBD,Raw,M-C-Open,92.6,93,195,207.5,215,215,125,132.5,-135,132.5,235,252.5,265,265,612.5,4,SW
Craig Harris,M,SBD,Raw,M-C-Open,92.4,93,205,215,222.5,222.5,140,147.5,152.5,152.5,225,235,245,245,620,3,SW
Darren Helley,M,B,Raw,M-C-Open,76.13,83,,,,,125,-130,-130,125,,,,,125,1,SW
David Ward,M,SBD,Raw,M-C-Open,91.23,93,175,182.5,190,190,105,110,115,115,205,220,230,230,535,10,SW
Doug Arnold #1,M,SBD,Raw,M-C-Open,94.67,105,175,185,195,195,-115,120,-125,120,220,230,242.5,242.5,557.5,8,SW
Elliot Sutcliffe,M,SBD,Raw,M-C-Open,78.17,83,150,160,165,165,110,115,117.5,117.5,187.5,197.5,202.5,202.5,485,12,SW
Faiz Bankole,M,SBD,Raw,M-C-Open,101.5,105,170,185,200,200,110,120,-130,120,210,225,-240,225,545,9,SW
Frankie Parke,M,SBD,Raw,M-C-Open,117.32,120,-265,280,-287.5,280,152.5,160,165,165,250,260,-270,260,705,1,SW
Hamish Macdonald,M,SBD,Raw,M-C-Open,92.14,93,170,-180,180,180,130,140,-147.5,140,230,240,-250,240,560,9,SW
Henry Green,M,SBD,Raw,M-C-Open,103.3,105,215,-230,242.5,242.5,130,-140,-140,130,255,275,-280,275,647.5,3,SW
Hugo Beaumont,M,SBD,Raw,M-C-Open,79.39,83,185,195,-205,195,135,142.5,-150.5,142.5,220,232.5,245,245,582.5,3,SW
Jack Carter-Taylor,M,SBD,Raw,M-C-Open,90.32,93,200,210,-220,210,120,-130,-130,120,-220,220,230,230,560,8,SW
Jake Leach,M,SBD,Raw,M-C-Open,82.26,83,175,182.5,187.5,187.5,120,-130,-130,120,180,200,205,205,512.5,8,SW
Jamie Gee,M,SBD,Raw,M-C-Open,81.75,83,195,205,-210,205,140,145,150,150,200,210,220,220,575,4,SW
Jamie House,M,SBD,Raw,M-C-Open,129.18,120+,-200,-210,210,210,130,142.5,150,150,240,255,-265,255,615,2,SW
João Arsénio,M,SBD,Single-ply,M-E-Open,78.82,83,240,250,255,255,130,135,140,140,240,250,-260,250,645,1,SW
Joe Humphrey,M,SBD,Raw,M-C-Open,81.76,83,125,132.5,-140,132.5,95,102.5,107.5,107.5,155,160,-165,160,400,15,SW
Joel Clarke,M,SBD,Raw,M-C-Open,81.59,83,125,137.5,145,145,87.5,95,-100,95,135,147.5,160,160,400,14,SW
John O'Riordan,M,SBD,Raw,M-C-Open,91.5,93,150,160,170,170,130,142.5,147.5,147.5,180,200,211,211,528.5,12,SW
Joseph Knott,M,SBD,Raw,M-C-Open,92.16,93,160,170,180,180,125,130,135,135,170,180,190,190,505,15,SW
Kent Ng,M,SBD,Raw,M-C-Open,93.63,105,195,-205,-205,195,125,-135,-135,125,200,220,-240,220,540,10,SW
Lee Gray,M,SBD,Raw,M-C-Open,82.47,83,185,197.5,-205,197.5,130,-140,140,140,200,220,-237.5,220,557.5,6,SW
Lee Maconnachie,M,SBD,Raw,M-C-Open,89.9,93,-180,180,195,195,130,140,-142.5,140,220,235,,235,570,6,SW
Liam Kylon,M,SBD,Raw,M-C-Open,82.57,83,170,180,-185,180,110,117.5,-122.5,117.5,210,220,225,225,522.5,7,SW
Louis Phelps,M,SBD,Raw,M-C-Open,114.58,120,180,220,-240,220,125,135,140,140,220,240,265,265,625,2,SW
Mason Mills #1,M,SBD,Raw,M-C-Open,96.15,105,210,220,227.5,227.5,110,115,120,120,235,247.5,255,255,602.5,5,SW
Matt Deacon-Smith,M,SBD,Raw,M-C-Open,91.74,93,200,220,240,240,125,130,132.5,132.5,270,-300,,270,642.5,2,SW
Matt Greenhalgh,M,SBD,Raw,M-C-Open,92.35,93,195,205,212.5,212.5,115,122.5,-127.5,122.5,210,225,235,235,570,7,SW
Mike Dyer,M,SBD,Raw,M-C-Open,93,93,165,175,180,180,120,130,135,135,210,220,-230,220,535,11,SW
Michael Patterson,M,SBD,Raw,M-C-Open,103.63,105,225,235,245,245,150,155,-162.5,155,255,267.5,-280,267.5,667.5,2,SW
Mike Roberts #1,M,SBD,Raw,M-C-Open,104.76,105,227.5,240,251,251,150,157.5,162.5,162.5,260,280,-287.5,280,693.5,1,SW
Nicholas Kenny,M,SBD,Raw,M-C-Open,102.87,105,195,-205,205,205,130,140,-147.5,140,260,280,290,290,635,4,SW
Nick Mellor,M,SBD,Raw,M-C-Open,135.5,120+,260,280,290,290,150,160,167.5,167.5,260,275,-282.5,275,732.5,1,SW
Nigel Simmonds,M,SBD,Raw,M-C-Open,91.19,93,140,150,165,165,100,120,-125,120,190,212.5,230,230,515,13,SW
Paul Coke,M,SBD,Raw,M-C-Open,83,83,150,-165,-165,150,100,105,-107.5,105,230,240,242.5,242.5,497.5,9,SW
Ramone Burton,M,SBD,Raw,M-C-Open,88.89,93,210,215,225,225,132.5,140,-147.5,140,305,315,-320,315,680,1,SW
Robert Haddock,M,SBD,Raw,M-C-Open,103.34,105,220,225,230,230,117.5,120,-125,120,230,245,-252.5,245,595,6,SW
Robert Hutton,M,SBD,Raw,M-C-Open,88.45,93,190,210,-215,210,-125,125,-135,125,230,250,265,265,600,5,SW
Ross Watson #1,M,SBD,Raw,M-C-Open,85.39,93,130,135,140,140,90,97.5,-102.5,97.5,190,197.5,200,200,437.5,18,SW
Ryan Griffiths,M,SBD,Raw,M-C-Open,90.6,93,-170,-170,170,170,80,85,-90,85,200,210,220,220,475,17,SW
Sam Kenyon,M,SBD,Raw,M-C-Open,81.85,83,152.5,160,165,165,107.5,115,-120,115,190,210,-220,210,490,11,SW
Steven Varney,M,SBD,Raw,M-C-Open,80.4,83,190,200,210,210,142.5,152.5,-160.5,152.5,240,250,263,263,625.5,1,SW
Stuart Parr,M,SBD,Raw,M-C-Open,100.5,105,180,190,200,200,125,132.5,137.5,137.5,200,215,225,225,562.5,7,SW
Wayne Collins,M,SBD,Raw,M-C-Open,91.52,93,-162.5,170,-177.5,170,132.5,-137.5,140,140,182.5,192.5,200,200,510,14,SW
Agata Dowding,F,SBD,Raw,F-C-Open,51.28,52,100,110,-115,110,55,-60,60,60,105,115,122.5,122.5,292.5,1,SW
Alexandra Basing,F,SBD,Raw,F-C-Open,61.7,63,50,55,-62.5,55,35,-42.5,-42.5,35,70,80,87.5,87.5,177.5,11,SW
Alison Day,F,SBD,Raw,F-C-Open,81.92,84,75,82.5,87.5,87.5,55,60,-65,60,120,130,135,135,282.5,4,SW
Amy Lawrence,F,SBD,Raw,F-C-Open,66.22,72,95,100,110,110,50,55,-57.5,55,115,125,-135,125,290,7,SW
Ana Rubio Denniss,F,SBD,Raw,F-C-Open,56.72,57,85,90,95,95,-47.5,47.5,-50,47.5,100,-110,-115,100,242.5,4,SW
Anna Luciano,F,SBD,Raw,F-C-Open,50.3,52,-65,-75,-75,,35,-42.5,-42.5,35,80,90,100,100,,DQ,SW
Anona Williams,F,SBD,Raw,F-C-Open,68.99,72,80,87.5,92.5,92.5,45,47.5,-50,47.5,100,107.5,115,115,255,12,SW
Bea Wright,F,SBD,Raw,F-C-Open,70.86,72,90,100,105,105,60,65,70,70,135,140,145,145,320,3,SW
Carla Crook,F,SBD,Raw,F-C-Open,55.9,57,65,70,75,75,45,50,-52.5,50,95,100,107.5,107.5,232.5,5,SW
Carly Lawes,F,SBD,Raw,F-C-Open,58.38,63,105,112.5,117.5,117.5,55,60,-65,60,130,137.5,150,150,327.5,2,SW
Charlie Chester,F,SBD,Raw,F-C-Open,102.62,84+,160,172.5,180,180,90,95,-100,95,165,180,190,190,465,1,SW
Charlotte Hansford,F,SBD,Raw,F-C-Open,79.37,84,95,100,105,105,60,65,-67.5,65,115,125,132.5,132.5,302.5,3,SW
Drew Fackrell,F,SBD,Raw,F-C-Open,70.27,72,85,100,-110,100,40,47.5,-50,47.5,120,130,137.5,137.5,285,8,SW
Emily Greenway,F,SBD,Raw,F-C-Open,69.63,72,115,125,127.5,127.5,62.5,65,67.5,67.5,135,147.5,155,155,350,2,SW
Emma Rafferty,F,SBD,Raw,F-C-Open,46.99,47,80,85,90,90,52.5,57.5,-60,57.5,100,107.5,112.5,112.5,260,1,SW
Emma Shepherd,F,SBD,Raw,F-C-Open,70.77,72,105,115,-120,115,62.5,67.5,70,70,120,132.5,-145,132.5,317.5,6,SW
Emma Wells,F,SBD,Raw,F-C-Open,55.53,57,90,95,-102.5,95,45,47.5,-50,47.5,115,120,125,125,267.5,2,SW
Fay Davies,F,SBD,Raw,F-C-Open,61.02,63,100,105,110,110,60,65,-70,65,120,130,140,140,315,4,SW
Fenella Powell,F,SBD,Raw,F-C-Open,51.7,52,75,82.5,-87.5,82.5,40,42.5,-45,42.5,100,105,110,110,235,2,SW
Grace Paxton,F,SBD,Raw,F-C-Open,55.52,57,57.5,65,70,70,40,-45,-45,40,85,92.5,100,100,210,6,SW
Hannah Ward,F,SBD,Raw,F-C-Open,60.67,63,82.5,87.5,90,90,47.5,50,52.5,52.5,110,117.5,122.5,122.5,265,10,SW
Helen Dennis,F,SBD,Raw,F-C-Open,70.3,72,85,92.5,95,95,55,57.5,60,60,100,115,125,125,280,9,SW
Jennifer Shaw,F,SBD,Raw,F-C-Open,77.59,84,120,127.5,132.5,132.5,65,70,-72.5,70,130,140,-145,140,342.5,2,SW
Jo Iles,F,SBD,Raw,F-C-Open,66.35,72,100,-107.5,-112.5,100,40,45,-50,45,110,117.5,-125,117.5,262.5,10,SW
Joanna Edwards,F,SBD,Raw,F-C-Open,53.19,57,-52.5,52.5,-55,52.5,35,-40,-40,35,65,70,72.5,72.5,160,7,SW
Karen Houghton,F,SBD,Raw,F-C-Open,92.4,84+,90,95,100,100,52.5,57.5,-60,57.5,105,115,122.5,122.5,280,2,SW
Kasia Huchrak-Reed,F,SBD,Raw,F-C-Open,70.34,72,95,102.5,110,110,67.5,72.5,75,75,105,117.5,132.5,132.5,317.5,4,SW
Katherine White,F,SBD,Raw,F-C-Open,77.68,84,120,127.5,135,135,65,70,72.5,72.5,147.5,157.5,165,165,372.5,1,SW
Lauren Randall,F,SBD,Raw,F-C-Open,56.89,57,80,85,-90,85,42.5,47.5,-50,47.5,115,125,137.5,137.5,270,1,SW
Liucija Kuzminskaite,F,SBD,Raw,F-C-Open,62.39,63,105,112.5,117.5,117.5,57.5,60,62.5,62.5,130,137.5,140,140,320,3,SW
Louisa Salmon,F,SBD,Raw,F-C-Open,70.44,72,110,-120,120,120,72.5,-77.5,77.5,77.5,110,120,-127.5,120,317.5,5,SW
Louise Nordén,F,SBD,Raw,F-C-Open,62.9,63,100,105,110,110,70,75,77.5,77.5,102.5,110,-112.5,110,297.5,6,SW
Lucia Sugden,F,SBD,Raw,F-C-Open,56.98,57,82.5,87.5,-92.5,87.5,50,55,-60,55,105,110,115,115,257.5,3,SW
Lucy Fraser,F,SBD,Raw,F-C-Open,61.77,63,90,95,97.5,97.5,50,55,60,60,115,122.5,130,130,287.5,7,SW
Marianne Glover,F,SBD,Raw,F-C-Open,62.23,63,90,95,97.5,97.5,55,60,-65,60,120,125,127.5,127.5,285,8,SW
Melania Fodritto,F,SBD,Raw,F-C-Open,50.12,52,65,70,75,75,35,37.5,40,40,95,100,105,105,220,3,SW
Molly Chapman,F,SBD,Raw,F-C-Open,62.84,63,100,110,115,115,55,60,-62.5,60,115,125,-127.5,125,300,5,SW
Rebecca Ferris,F,SBD,Raw,F-C-Open,51.67,52,55,60,65,65,30,32.5,-35,32.5,87.5,90,92.5,92.5,190,4,SW
Rebekah Coveney,F,SBD,Raw,F-C-Open,75.35,84,55,60,65,65,45,-47.5,-47.5,45,90,100,107.5,107.5,217.5,5,SW
Rosimery Lima Gallo,F,SBD,Raw,F-C-Open,61.67,63,117.5,125,130,130,75,80.5,82.5,82.5,145,-155,160,160,372.5,1,SW
Samantha De Graf Wise,F,SBD,Raw,F-C-Open,63.14,72,80,85,92.5,92.5,42.5,47.5,52.5,52.5,100,105,110,110,255,11,SW
Sian Kilburn,F,SBD,Raw,F-C-Open,61.22,63,87.5,95,100,100,42.5,-47.5,-47.5,42.5,125,130,135,135,277.5,9,SW
Sophie Coombes,F,SBD,Raw,F-C-Open,71.86,72,120,130,,130,62.5,72.5,77.5,77.5,125,135,150,150,357.5,1,SW
Tamira Hasson,F,SBD,Raw,F-C-Open,97.62,84+,-50,50,-55,50,42.5,-45,-45,42.5,80,90,100,100,192.5,3,SW
